{
  "development": {
    "username": "root",
    "password": "Toor1234",
    "database": "mysql_db",
    "host": "127.0.0.1",
    "dialect": "mysql",
    "operatorsAliases": false
  },
  "test": {
    "username": "root",
    "password": "Toor1234",
    "database": "mysql_db",
    "host": "127.0.0.1",
    "dialect": "mysql",
    "operatorsAliases": false
  },
  "production": {
    "username": "root",
    "password": "Toor1234",
    "database": "mysql_db",
    "host": "127.0.0.1",
    "dialect": "mysql",
    "operatorsAliases": false
  }
}
